月份,景氣燈號,景氣對策信號,領先指標,delta
2022-01,,36,99.12,0
2022-02,,34,98.66,-0.46
2022-03,,31,98.05,-0.61
2022-04,,28,97.2,-0.85
2022-05,,28,96.13,-1.07
2022-06,,27,94.98,-1.15
2022-07,,24,93.96,-1.02
2022-08,,23,93.14,-0.82
2022-09,,17,92.56,-0.58
2022-10,,18,92.28,-0.28
2022-11,,12,92.34,0.06
2022-12,,12,92.65,0.31
2023-01,,11,93.02,0.37
2023-02,,10,93.13,0.11
2023-03,,11,92.9,-0.23
2023-04,,11,92.43,-0.47
2023-05,,12,91.81,-0.62
2023-06,,13,91.11,-0.7
2023-07,,15,90.33,-0.78
2023-08,,15,89.44,-0.89
2023-09,,17,88.45,-0.99
