馬曉光
以前
正式
陳水扁
BBC
刑事訴訟
個人
滴滴出行
美林證券
一一
查證
沃爾瑪
太陽花學運
冰箱
認養
財產申報
分配
林岱樺
MeToo
軍售
台灣演藝圈
送信
第一銀行
醒吾科大
侯友宜
台中榮總
人民幣匯率
台灣藝術
國防部
醫護管理專科學校
兆豐國際商業銀行
政府啟動
一中
政治大學
第三人
滙豐銀行
江澤民
健保費用
歐元區
安檢
Uber
非常滿意
角板山
政經
高考
燈飾
恐嚇
富邦金控
IFRS
回答
水利署
砂石
財金投資
勞保年金
A
台北世貿中心
畢業
國家稅務
學費
加班費
蜂蜜
學貸
青年創業
體育
聯名卡
附上
原住民族
經濟部
父母
遊覽車
中國建設銀行
新千歲機場
e
鄭麗君
全世界
中國工商銀行
家教
心血管疾病
路邊
宣明智
黃瀞瑩
大都會
試衣間
新型冠狀病毒
the
借貸
疫情
專利授權
熱門打卡
台北市長
幾內亞
文化總會
大同大學
比特幣
鏡頭
啦啦隊
途中
金塊
騎士
糟透了
陳椒華
都市計畫
筆錢
自主學習
竹山
地政司
時代力量
政策性
加強
股
上海
英文
台中銀
實習
板塊
MSCI
日本和牛
鋼鐵
貨幣政策
月曆
億元
婦產科
行署
罷免
邱太三
零食
北部
實體經濟
靜宜大學
民調
營運資金
金正恩
真理
Airbnb
門號
市府
福袋
頭獎
航線
意思
電動機車
研發
比爾
美國矽谷銀行
徐耀昌
還能
張國煒
美軍
振興貸款
台灣師範大學
企業資金
國發基金
透漏
黃紹庭
合理
花海
長期照護
影片
國際
海水浴場
房子
露營
台電
發財金
中視
語音
富比士
國發會
工具機
通路
任天堂
外面
瓜地馬拉
洪森
淡水河
超市
詳細
吳先生
空汙
COVID-19
野餐
監管
災防告警
火上加油
APEC
跳傘
將屆
琉球
詹詠然
海峽中線
食物中毒
彰銀
Windows 10
第四
附件
陽明山
出口
華南永昌
資料庫
群益金鼎證券
王健林
小馬可仕
空污
資產
SME
方便
遺產稅
小孩
政府
徐志榮
美中關係
華盛頓
觀光工廠
醫學系
諮詢費用
小學
台灣商業
價錢
SWIFT
北極熊
十一月
監察院
房客
安東尼
監察
教宗
教官
佛教
行政院農業委員會
李顯龍
糖尿病
館長
民進黨
牧田和久
世貿
貸款優惠
F-35
聯合徵信中心
信用
看看
待遇
新北中信特攻
火葬
阿拉斯加
容易
陳以信
權證
李宇翔
聯合
人士
保單
農地工廠
投入
北醫
com
教師員額
幹部
經貿
教育補助
SPA
管理局
能源轉型
非洲
彭博
霸凌
何時
BNT
人壽
美國公債
豬肉
莫迪
公文
陳凱凌
比利時
龍潭
財稅
新光
餐飲業
不一
作文
台鋼雄鷹
Untitled
補休
康裕成
小寒
開藥
彰化商業
大學教授
恆大
彰化
蝦皮購物
Android
停車費
龍膽石斑
台南大學
家暴
無人
燕麥奶
三亞
安泰銀
地勤
星座運勢
學測
居留
安永
債務協商
贈與稅
分享經驗
貼圖
明明
包含
社區
哈士奇
年金
牛棚
創新
中華醫事科技大學
修理
MLB專欄
新住民
淡江大學
企業投資
文化部
故宮南院
飛彈
中華科大
TORO
東吳大學
房屋
吐司
App Store
Apple ID
水果
黑鮪魚
開春
大阪
金馬
加拿大
退出
離岸風電
餐飲
夏天
醫師
論文造假
濕地
可頌
ECFA
美濃
紐約
好比
新冠
肯德基
產業發展
南橫
買賣糾紛
App
減資
愛心
本土語
達文西
運動場館
奶油
腫瘤
莫健
lee
考試院
雙胞胎
聊天
不予
元宵節
去年
清泉崗機場
台灣建築
動物園
阿根廷
融資貸款
旗津
國共論壇
金融研訓院
列入
第一金
跆拳道
麥田出版
餘額
塞車
劉德音
創業課程
雲端
下滑
報告
柯志恩
功能
哈爾科夫
大陸
台新銀行
Arm
SVB
佔有
專利分析
上班族
台北市政府
BTS
民主黨
紅腹錦雞
炒股
申請專利
一中政策
中山站
輕軌
熱線
4,000
義賣
滑輪溜冰
因素
委員會
王金平
小米
醜聞
兆豐金控
復甦帶來
效度
打
土耳其
台經院
防制
國立臺灣戲曲學院
伯朗大道
霸王餐
僱用
建成
霹靂舞
上漲
穀保家商
馬斯克
農業部
房屋貸款
保險
陸委會
藝術家
新鈔
五年
運作方式
台塑
楊文科
Valentino
出生
少林寺
國稅局
股份
烤雞
大雅
跳出
育幼院
國泰金
團隊
仿冒
保護區
蒙古
業績
前次
新冠肺炎
未成年
邦人壽
疫苗
民間團體
外食
住宅補貼
佳世達
關島
安泰
跳到
飲食文化
腦霧
綠色能源
李克強
鸚鵡
大盤
資金需求
太陽
討論
戒嚴時期
高級住宅
台灣電力公司
健保費
不滿
優惠貸款
進貨
蘇巧慧
植物人
婦道
文青
預售屋
公務員
大雪
產業升級
服務品質
鐵道
兩會
財大氣粗
好萊塢
華梵
魔獸
空窗期
排球
彰師大
WhatsApp
鑑賞
科技
資金貸款
副作用
工業總會
虎尾科技大學
USB-C
新光金
華裔
九合一選舉
索羅門
超微
地熱電廠
力成
蘋果
更正
iPhone 14 Pro Max
大漢技術學院
蝦皮拍賣
民法
高苑
智慧城市
安心旅遊
薰衣草
蘇柏亞
維權
柔道
臺灣鐵路管理局
登記
中華郵政股份有限公司
大眾
遠東
實戰
外交部
渣打國際商業銀行
長榮
愛情
厄瓜多
不佳
化學品管理
日式料理
公司債
創業圓夢
無法容忍
恒大
火星
港警
風暴
金管會
毒品
次世代疫苗
戴錫欽
波及
接到
鬆綁
旅遊
HBL女子組
王維中
商辦
新德里
技術研發
六月
霍華德
伙伴
費鴻泰
客語
戒指
台大
摩根大通證券
電動汽車
高屏溪
熱點
移工
職員
電競
宏泰
黴菌
真的
中毒
宜蘭美食
甜瓜
陳明義
台灣電力
河馬
太陽能電廠
經濟特區
索尼
戴維斯
國壽
棕熊
財富
垃圾車
指數
史密斯
推出
林楚茵
破產
春節返鄉
國外
維護
通過
會計
中華足協
毛治國
老年人
新北
林靜儀
猥褻女童
陳雪生
7-ELEVEN
愛爾蘭
長庚科技
美光
南華大學
蜜蜂
旅行社
美元
阿里
陳吉仲
這邊
世代
技嘉
北科大
越南盾
腹痛
蔡英文
台灣高等法院
事情
捷報
今天
理科太太
空軍
貢寮
標誌
履歷表
匯價
專利技術
冰河時期
國立臺灣
塑膠袋
地瓜
電子
經濟不景氣
沒辦法
打算
Semi
新港奉天宮
夢境
新台幣
要素
房市
謝謝
客委會
共有
自行
全校
快篩試劑
原住民青年
國票
支持
空氣品質
違規
白色恐怖
花火
現金流
協和電廠
產品
趙立堅
TDC
陳寶餘
平台
林書豪
西班牙
自用住宅
看好
推特
花敬群
資本財
金管
炒房
冥想
Bac
國安法
債市
椪柑
消息
股災
新鮮人
台灣人
轉型正義
華爾街
現場
海芋
苗栗縣
土地
木星
富邦證券
糟糕透了
規範
陳彥博
大陸央行
梅克爾
和服
KTV
紫外線
車禍
美金
國立臺北
陳亭妃
珠寶
KKCompany
企業主
賭博
申請貸款
檢察官
7,000
操作
持有
中油
國文科
轉機
金融海嘯
戒菸
流感疫苗
CES
國立臺灣大學
罰單
縫紉
列印
新光金控
嘉大
業者
女性工作
川普
津貼
自動通關
論文原本
堅定
水土流失
聯盟
人大常委會
黃子鵬
CFC
最大化
九月
原子能委員會
洪水
THE
裁員
澳網
滷味
貨幣資產
分科測驗
芝加哥
台積
旅遊景點
郭強生
馬桶
狗屋
高美濕地
台北科技大學
補償金
新竹市立棒球場
靠近
圓夢
台新夢想家
酪梨
施明德
藝人
工薪
Disney
庫存週轉
紐西蘭
筆電
經辦
聯電
小麥
國際競爭力
陳沂
郭台銘
回復
李俊俋
聖嬰現象
向陽
信用合作社
樹枝
一銀
澤倫斯基
大學海洋
雞蛋糕
吸金
氣象
西點軍校
劉昆
證券交易所
成大醫院
三冠王
神主牌
票價
沖繩
華語
細節
經濟
便利商店
王齊麟
臺東
大壩
支援
壽險公司
陳明文
並不
螺螄粉
原住民族委員會
iOS 16
俄羅斯
振興
立春
街舞
曼谷
長期鈍化
豬排
世界地球日
三冠
會議
明星賽
曾永權
策略
蕭宗煌
新南向
統一證券
輝達
投資環境
奮起湖
永齡基金會
潘孟安
以房養老
書法
役男
吳斯懷
國教署
明志科技大學
提交
春晚
法國
衛福部
接受
阿里山
國票金
接班
廣東
blessed
11月
研究
蘇宏達
人工智慧
秦先生
導彈
台灣關係法
空拍機
贷款
路面塌陷
工時
土壤液化
一國兩制
微軟
台北市
陳柏任
長榮大學
Apple Store
證券商
財經
危機
服務升級
12月
洪孟楷
臺科大
電子產業
捐血中心
殖利率
南海
漢來美食
沙鹿
數學
中華民國總會
搜救犬
華南商業
遊民
妨害公務
排除
貧富差距
花燈
在家工作
凱基銀行
門檻
週轉
蜜棗
國立
申請資格
性行為
布拉
成效
二二八事件
抗生素
鄭明典
分發
潘文忠
總統大選
是否必須
CNN
北門
希臘
墜機
頂級
太太
奈及利亞
早上
開業
何欣純
推理
仁寶
補助
聯合國
法務部
設計
矢板明夫
教育局
南臺科技大學
基地台
山友
牌照稅
性騷擾
得到
永豐金證券
廢校
評鑑雙月刊
五角大廈
編號
得利
金紙
轉讓
棒球
CPI
迪士尼樂園
穆雷
台北市選舉
usa
課稅
護航
CPR
mail
日軍
網購
Spa
課程
糖果
刺激措施
殯儀館
索取資料
悠遊卡
新光銀
暗示
洪耀福
黃偉哲
創業
高教
自民黨
社團
預算
多元化
台中銀行
居家照護
鄉長
烘焙坊
炸彈
小心
公視
換衣服
經國學院
壁虎
居家上班
股利
大使館
明新科大
薪
臨檢
ideas
防疫
王彥程
總局
精誠
手續
詐騙集團
新
管中閔
街口支付
保險套
工會
原民會
哈佛大學
威尼斯建築雙年展
非洲豬瘟
高薪
專利申請
經濟發展
5,400
透天厝
汽車旅館
產險
離職
提供
蔡其昌
華泰銀行
元旦升旗
帳務處理
帶領學生
國宅
聯經出版
國安
經濟成長
復健
白河
不爽
環球影城
華梵大學
新疆
停課
真理大學
地震
英語
銀行
尹錫悅
國立虎尾科技大學
勞動基金
自語
LED
程序
博一
LEE
國泰世華銀行
看完
調查局
商銀
中國時報
經濟區
產業轉型
育達
限制
五成
經濟衰退
微信
看客
亮點
夫妻
外籍
企業信貸
打工
國家
國立臺北科技大學
兆豐金
毛利率
CTW
觀光產業
北京清大
描述
內政部
憲兵
開設
科技執法
台北城市科大
如何
林立
地址
高嘉瑜
陽明交通大學
35A
牛津
雲林科技大學
35I
樂天商銀
反恐
吉隆坡
千億
科技部
南亞
拉拉山
立陶宛
合作社
匯率
跨國
部立桃園醫院
音樂會
女兒
小港機場
勞基法
多少
交通月票
樂透
國寶
景點
華泰銀
競技
苗栗旅遊
保險局
Dwight Howard
填入
論文比對系統
活水
不動產糾紛
汶萊
商務
中華隊
停歇
創業創新
行政
貸款申請
購買軟體
賓士
身心
吳怡農
邱顯智
3C
漲潮
網路
利率
教育
交響樂團
共產黨
訴訟
施俊吉
第一金控
東元電機
生態公園
壽山動物園
張碩文
Whoscall
正文
取得
停止
私校
Snapchat
衛生福利部食品藥物管理署
職場
4G
管碧玲
下午
開課
公益活動
蕭美琴
聯大
抗癌
古巴
太空
實施
駕訓班
減免
尚待
中華電信
Program
貨幣
櫻花季
學習歷程檔案
包養
王如玄
聯邦銀行
高等法院法官
5G
以色列
兆豐銀
收支
團體
正方
區塊鏈
情人節
高雄市
學區
李孟諺
蛇
EMBA
徵信
國科會
救護車
勞工
贊助
退回
客家文化
詹婷怡
立案
製造
臺灣土地銀行
健檢
新的
林秉樞
必比登
突然
車展
上半年
存在
楊曜
延期
卡洛爾
因應
富邦人壽保險股份有限公司
千金
預約
新興市場
查到
高雄輕軌
TSUTAYA
巴拿馬
熊本
台糖
購買運輸
文宣
物聯網
華泰
京城銀行
社會住宅
中國人民銀行
台灣基進
虛擬貨幣
新北市
安全
尺寸
高齡化
親子
上去
總經
王滬寧
好像
Pixel
加薪
肺炎
結婚
新冠疫苗
用地
月
有
常常
伴侶
杜拜
爸爸
胡志強
郝龍斌
保存
富邦悍將
分類
價值評估
陳小姐
網路線
李智凱
永豐
下去
鋼鐵人
減重
世銀
烏拉圭
反腐
LINE Pay
連續假期
註記
出租
證交所
設定購買
鹽酥雞
南澳
公平交易委員會
大學
水質
Amazon
word
平均
張善政
林懷民
蔣萬安
奇士勞斯基
陸軍
SEMI
大安
火車站
回扣
大客
聖誕節
停水
冷戰
客人
網軍
UBA
電廠
壓歲錢
羅志祥
波音
已有
股票交易
中信
群創
畫作
服貿
彩妝
李文俊
客車
發展部
原本
現金流量
美甲
三峽老街
演藝圈
深圳
物資
暨大
藏獒
公告公告
台中旅遊
台中商業銀行
測速
Tips
成果
銀樓
神學士
競選看板
跨年晚會
中常會
整年
梨泰院
前進
挾持
私房錢
台藝大
融資額度
新東方
中華職棒
愚人節
不同
北韓
化石
綠色消費
試管嬰兒
饅頭
必勝客
台美關係
情侶
癌症醫療
C羅
時薪
香港
肉圓
經濟研究院
數位轉型
郭天信
資安
聖約翰
長照機構
高雄旅遊
共享經濟
宮崎駿
間諜
李永得
中華郵政公司
倒閉
募兵制
連鎖
茶葉
血栓
同婚
電影
軟體
看不到
搶攻
大專
封控
提醒
陳述
愛滋病
口腔癌
盧森堡
胡智為
市政府
培育
商業總會
生活津貼
中火
LINE
沈慶京
曹薰襄
插入
記載
增資
鍾東錦
廣告不實
Change
周轉
口罩
道路
餐廳
這筆貸款
什麼
方仰寧
地方產業
信箱
海洋公園
指標
報稅
刷卡
屏東縣
選情評論
漲價
博通
庫克
創業輔導
服務業
森林公園
抖音
國際投資
空氣汙染
半導體
利用
泰國
臺北大學
iMac
進出
社交距離
衝擊
國立臺東大學
裝置藝術
大安區公所
工業
大屯
養老
直升機
玉山銀行
提出
AI
中國銀行
國防大學
子女
數位金融
清真寺
柯富揚
林國慶
境遇
AR
商品
stop
蔡天鳳
屏東大學
國巨
中間商
憂鬱症
黃國昌
BA
演員
國立高雄科技大學
徐欣瑩
海協會
中央選舉委員會
凶宅
財富管理
大學排名
獎金
國內生產
毒駕
The
南僑
中部
貨幣危機
魚類
高校
台達電
創業家
運輸
運作
碧砂漁港
學員
客戶服務
兩岸關係
老街
雞排
簽約
穆罕默德
費南德茲
節氣
烏龍麵
蚵仔煎
提到
夜市
復興商工
提前
頭髮
女王
DIY
興業
程式語言
台幣
監視器
水資源
南部
台灣人壽保險
傳統市場
體育署
淡水商工
APPLE
這間
Safari
掉髮
電源供應器
菜價
電池模組
段宜康
雙11
中興大學
鄭寶清
蔡培慧
文組
台灣虎航
國際合作
王子維
彈道飛彈
天氣動態
風力發電
日式建築
晶圓代工
戴帽子
美國銀行
建行
風水
青發會
台灣銀行
王建民
李縉穎
論壇
江啟臣
太魯閣國家公園
何立峰
藍翊誠
育兒津貼
吉安
學生
不用
墨西哥
農糧署
基隆港
王世堅
梨山
方面
讓與
電聯
掏空
剩下
前瞻基礎建設計畫
烤鴨
婆婆
廢止
框框
海巡署
好市多
美國商務部
確診
G7
士林官邸
廢死
卡通
東航
瑞典
發展研究所
葉俊榮
夢時代
肝病
南光
配偶
債券ETF
空氣汙染防制
最近
補
拉特
鮑爾
企業銀行
救助金
名字
包子
客運
新增
今年
日治時期
英國女王
洗錢
直播主
經驗分享
中共
輝瑞
盧秀燕
癌症
DNA
賭場
嘉義大學
月份
燒肉
一直
扬州
自衛隊
蘇丹
立法會
日前
遠雄人壽
江西
黃國書
國家人權博物館
時期
淘寶
中醫
陽信
審查
低溫
卡達
台北故宮
動態
確認
IG
汐止
世界先進
煞車
藝術大學
IN
周天成
選課
2024大選
之下
車廂
猴痘
魏明谷
補發
恐龍
倫理
美國
戴奧辛
零售業
進化
柴犬
日銀
陳福海
星冰樂
銀行搶案
Swift
援交
資本支出
王必勝
散戶
企業週轉
教授
呂家愷
In
海岸巡防署
台北護理健康大學
創意市集
開發區
自由行
夜市小吃
大陸委員會
啟動
蔡明介
阿里巴巴集團
艋舺
天鵝
訓練費用
Sony
USA
期貨
USB
微博
原物料
獎勵
唐山
約旦
優質服務
遠距
林俊憲
台彩
kuso
營運週轉
好博
厄多安
林昀儒
退票
僑委會
草莓
元大投信
LG
提升
卡債
投票
台灣經濟
大考中心
國際油價
淋巴
鄭凱文
LV
大型演唱會
上限
陳冲
中國信託商銀
城邦出版社
王毅
換鈔
精準
吳東亮
興達港
清零
韭菜
亞太經濟合作會議
組織
記者會
中正大學
健走
德銀
忘了
台灣觀光產業
下降
會展服務業
林明溱
陳文章
非常糟糕
黃志雄
多倫多
擴大營運規模
萊豬
司康
繁忙
華山基金會
孕婦
醫療疏失
占有率
NBA專欄
喵星人
梁文傑
衛生署
職業訓練課程
華信
跳票
內湖
長榮中學
陸配
許宗力
馬丁
南藝大
渣打銀行
消費券
綠卡
家人
結紮
安泰銀行
電腦
顧問
OK
協助
警政署
學院
憂鬱
鋼絲
柯文哲
唐鳳
中國信託銀行
現金卡
瑞銀
Lee
資工
股市投資
二月
提及
失業率
郵局
美國經濟
德明科大
繳稅
Deloitte
世界
iPhone 14
巴西
Meta
速限
PS
留學生
券商
獅子會
消暑
黃金現貨
鳳梨
陳師孟
女生
社宅
公路
NBA新聞
環狀線
先前
假新聞
社會福利
CPTPP
複利
吳思瑤
樓
退稅
柯林頓
慢性病
戴資穎
華通
幸福
弘光科大
eSIM
操作說明
明華園
上海銀行
智慧
核武
領航猿
槓桿ETF
銀貸
MIH
2020年
降雪
小摩
處理器
蝦仁飯
RE
逃漏稅
聯準會
文化局
溜滑梯
盆栽
總經理
MIT
司法改革
立訊精密
劉宏恩
解決問題
阿拉伯
生魚片
蔡衍明
氣爆
Re
英語能力
新光銀行
只能
落羽松
生鮮
中鋼
許銘春
馬英九
保險經紀
跟蹤騷擾
日月光
假釋
約會
杜魯多
高苑科大
房地合一
亞馬遜
福利
台聯
上海商銀
商業登記
牙醫
欣然
建設
大麻
民航局
成長率
國家公園
MLB
希望
台灣企銀
台灣電子
商圈
文化大學
特斯拉
兔兔
中信金控
當然
復甦
總鋪師
上面
衛生局
賴香伶
海洋產業
國家語言
下半年
科技大學
蘇澳
麻省理工學院
婚禮
南投旅遊
銀行員
明新科技大學
假鈔
晶圓廠
卓冠廷
張金鶚
新移民
藏壽司
植田和男
咨詢
手機鏡頭
銀行新竹
行業
張惇涵
陳思羽
賴士葆
違停
何博文
無法接受
台股
華為
VR
大鵬灣
下面
傳統產業
富邦人壽
梅花
長照
聯絡
魏哲家
校車
氣象局
福特
桃園市選舉
嘉義
土地公
洪宗楷
不能告訴
公車
羅馬
發燒
GLOBAL
遇到
人才
瀝青
台灣藝術大學
招牌
從嚴
生產力
長榮航勤
雖有
瑜珈
期中
元富證券
麵包
螢幕
可能
清冠一號
派遣
婚姻
透天
健身
自辦
銀行開辦
搜尋引擎
MOU
12月份
假牙
蘋果電腦
詐欺
社區營造
網銀
美食
莊人祥
寫作教室
高雄市長
敬老津貼
翁啟惠
受贈單位
高雄流行音樂中心
星宇航空
發函
國中教育會考
蔣介石
週轉天數
財團法人中華民國婦聯
思覺失調症
通知
衣服
徐榛蔚
吳東進
TIPS
中國信託商業銀行
手搖
化學
湖人
快速充電
還款
字節跳動
生技產業
元大金
卡特
李永萍
Tiffany
醫療器材管理
產銷履歷
日本經濟
蝙蝠
股權融資
海星中學
樂生療養院
經濟成長率
平等
再次
直接
金字塔
機構
管理專科學校
保羅
新竹
百分
橫行
討厭
寧夏夜市
共享
慕尼黑
自述
公佈
告示牌
棉花糖
小熊維尼
T1聯盟
高虹安
宜蘭旅遊
華盛頓郵報
毛寧
ECB
旅遊業
開辦
法律顧問
汪文斌
面的
洪一中
蕭茲
共軍
林郁方
告白
衛生紙
首爾
健保卡
元大銀
日月潭
潘濤
2023年
四月
桃園雲豹
郵差
蛋餅
證監會
南向
更名
咨询电话
統一獅
聯合國加入
港口
阿姨
拉斯維加斯
能不能
寒流
空難
店面
合庫
遠東銀行
可口可樂
環評
環球購物中心
漫畫
管理處
民間
鵜鶘
黑道
1216統一
台灣國
台灣大哥大
胡適
在線
建議
企業經營
巧克力
UNIQLO
間諜氣球
獨行俠
工業電腦
物價
雞蛋
防範
國慶
陽信銀
疑似
婦女
比基尼
查看
身分證
聯繫
開發金控
產能利用率
清大
3,000
總統府發言人
伊斯蘭
借貸成本
長庚科技大學
稅收
游錫堃
開發金
導盲犬
校長遴選
晶圓代工廠
金控
運勢
交易
黃男州
地下水
羽球
綠色經濟
港鐵
義隆
歐洲
石斑
溫泉旅館
Softbank
AIoT
退伍軍人
中和
反映
花東縱谷
法師
運動
遠東商銀
股東會
記錄
王品集團
fia
台灣經濟研究院
高速公路
台新金控
前瞻基礎建設
台大醫院
士林
智慧財產局
該行
WSBL
瑕疵
飼料
成分股
健保
研究院
放榜
田家榛
易飛網
夢想
利多
永豐金
榮耀
宏都拉斯
價差
奈米
WBC專欄
林昶佐
台中市
西藏
朱立倫
窗口
波克夏
諾羅病毒
丈夫
其他
中環
烤肉
併購
魷魚遊戲
咨询
暑假作業
每週星座運勢
開運
北屯
直播
三大
婦聯會
南向政策
台南市
黑鷹直升機
5,600
創造
遠傳
洋基
游淑慧
國立宜蘭大學
棒球專欄
投保薪資
九份
配合
有利
刺青
早產
大肚
很高
台灣大
國定假日
解放軍
華銀
一站式
SOGO
梅花颱風
保健食品
黑松露
龐培歐
社工
抹香鯨
臺新金
Acer
華南金
ct
計畫
應用
外交委員會
協商
買房
電腦軟體
大學教育
喜馬拉雅山
輔大
醫學大學
喬治
體質
111分科測驗
洛杉磯
管理
建國科技大學
基本上
加入聯合國
商業銀行
重播
行車記錄器
分工
數位人民幣
職業訓練
外資進出
選罷法
陳超明
亞東
化學品
在线
永豐商業銀行
流量
Type-C
還貸
門鈴
八卦山大佛
人才培育
中科院
梅花鹿
雲端平台
室友
過半
心理
財政
葉匡時
速食
都市
石崇良
扣押
祕魯
社子島
寄送
買
6,000
猶太
沒有
自治區
鑰匙
319槍擊案
fd
混凝土
肺癌
公債
表格
收款
心理測驗
北約
國泰金控
高中老師
外匯市場
人蛇集團
毛澤東
黑熊
原能會
臺灣中小企業銀行
車手
告知
本事
法
救護員
阿嬤
問題
烏山頭水庫
葉丙成
短期
先生
台灣人壽
創業計畫
中信銀行
台灣建築中心
賣給
繳納
飛機
股票
活動
基本工資
獲利
大面積土地
崑山科技大學
饕客
赫洛
紅利點數
記憶體模組
故障排除
酒吧
無薪假
墾丁
EPS
太白粉
吳密察
傅崐萁
覺得
發現
李尚福
NBA
權益
排除故障
專校
三井LaLaport
2月
民國
購屋貸款
不好
房東
營養午餐
勞動檢查處
野放
能源
這種
in
超標
不好意思
軍艦
國立金門大學
陳唐山
網路遊戲
NCC
瀏覽器
台灣之星
漢堡
已經完成
趙怡翔
國立大學
停車場
才藝
台灣加入聯合國
民眾
同志
罷工
商科
陳俊聖
智慧型手機
爛尾樓
展延
專案
甜點
勞動部
陽明海運
馬公
等待
綠電
4月
吃到飽
ESG
玄奘大學
華南
庭院
查理三世
法律
分店
樂團
宋家豪
服務
布魯塞爾
聯絡電話
聯考
黎智英
Wi-Fi
環保局長
政策利率
之前
求全
美國公民
5月
ETF
辦桌
FinTech
司法官考試
醫療生技
火災
在线聊天
工人
端午節
農會
江聰淵
五月天
雲豹能源
NFC
泰山
才是
重新
一定
微型
快速
BEPS
機場捷運
KPMG
山寨
跨年
NFT
親戚
姚人多
文才
資產大戶
投資人
金融監管
舊金山
7月
王鴻薇
保險公司
陳敏薰
陸生
享有
臺灣
博客來
硬碟
鹿港老街
星巴克
柏克萊
一家
音樂劇
乙烯
解答
北市
排隊美食
日圓
廣運
海象
萊斯特
台南美食
武陵農場
歐洲央行ECB
水獺
八里
放款
海豚
女壘
維吾爾
NHK
黃琪
台股指數
台北富邦銀行
富國銀行
氣喘
您好
巨人
突破
ok
廣達
美容
柯基
吳佳穎
9月
美國在台協會
退撫基金
泡麵
胃癌
陳雨菲
技職
亞裔
頂新
跆拳
延中
中的
國立台南藝術大學
螢火蟲
可不可以
出入境
台灣土地銀行
阿米
林華韋
喬丹
精神衛生
臺灣大哥大
荷花
冷氣團
十大
潘威倫
當選無效
股份有限公司
饒慶鈴
王美惠
工作
簡易
非常失望
108課綱
戰機
英文科
失智症
王道
社群
朋友
國家公園管理處
遠銀
南投縣選舉
re
羅素
燈會
快時尚
環泥
國立體育大學
技術轉移
清算
德國
台灣經濟成長
收賄
禮券
醫檢
王定宇
高中
黃金博物館
富邦銀行
食譜
合作金庫銀行
富邦
威廉王子
西拉雅族
遲遲
日本料理
謝國樑
防毒軟體
尚未
統一編號
這筆
email
回覆
Gmail
正國會
大腸癌
改革稅制
專業
基期
合歡山
技能
國立臺北大學
三信銀行
截止
中華科技大學
譚德塞
企鵝
中國
建中
排水溝
魏應充
基本
海洋
高普考
公共財
長榮海運
細懸浮微粒
邱義仁
同意
營業員
猴子
蝴蝶
恆春
成交
空姐
資格申請
性別歧視
國立屏東大學
開銷
加油站
OTOP
信良
宜蘭大學
年底
噶瑪蘭
紙條
寧德時代
美術館
一氧化碳中毒
精神疾病
數位帳戶
中天新聞
臺灣戲曲
運動委員會
阿富汗
全球經濟成長
黃重諺
微風
單身
邱垂正
年度
張志軍
張麗善
疫情惡化
註冊
寒假
前面
特刊
台北世界貿易中心
高溫
鬼門關
噪音
特別
謝金河
價值專利
新年
Twitter
美國期中選舉
春運
財政赤字
奶奶
合作金庫商業銀行
公共運輸
鄭正鈐
自由車
單車
即可
光電
宏碁
興達電廠
購屋
鵝肉
蔡清祥
日報
台灣觀光
玉兔
大聯盟
大關友久
南非
台灣中小企業
今年成長
蘭潭
愛河
馬尼拉
雙語
雲林
從嚴從
身障者
胡錫進
往年
分享青年
王儲
世界銀行
FBI
香港特首
奧客
开业
王岐山
拜登
入口
莫斯科
義守大學
yu
元培
拿到
林德福
Campus
除夕
諾貝爾獎
沙烏地阿拉伯
吳釗燮
究竟
投資移民
經驗
長庚大學
爭鮮
西裝
本部
有用
新黨
抽驗
致力
大仁科技大學
WEF
營收
商家
FDA
華南商業銀行
自營商
和牛
減稅
蘋果發表會
中埔
政治
閱讀專題
抽空
劉以豪
台中美食
余宛如
南韓
高峰期
軟體設計
限定
星雲法師
永和
手術
許嘉恬
開發中國家
退役
新創企業
評估
樂天
資策會
輔導
李洋
月世界
耶誕節
物品
蛋糕
夫妻財產
亞東科技大學
匯豐銀行
加盟店
蘇貞昌
生育
自由港
韓國瑜
全台
支付
食物銀行
國產署
全球
WHA
南榮科大
桃園市長
收下
彭文正
蘇治芬
WHO
繼續
案件
大華
臺灣戲曲學院
三信銀
新光人壽
國際經貿
驾驶
好好
女性創業
服務更新
廈門
蔡宏圖
網路家庭
柯瑞亞
呂秀蓮
私房景點
人本
洗錢防制
李四川
弱勢家庭
華南銀
台灣海峽
原住民
專利侵權
賴瑞隆
SpaceX
下屬
台新
產學合作
永和區
王國材
註銷
金融
ubereats
永豐銀
臺銀
國文
觀光局
上海商業儲蓄銀行
過年禁忌
富邦金
生意
應用科技大學
FIA
指出
林右昌
信
菲律賓
期貨交易
王建煊
Prenetics
頂呱呱
胡錦濤
蓮霧
特區
威尼斯
農業
創業獎勵
額度
德意志
繁星
店家
野柳
專欄
雄中
奇聞
魯凱族
金融科技
瑞芳高工
生態
太陽能產業
陽明交大
公司
犯法
伊麗莎白二世
律師
人身攻擊
工業富聯
大巨蛋
優衣庫
歐巴馬
微型保險
馬克宏
陳智菡
財團法人
林為洲
證券
瀑布
輔仁大學
東西
林益全
IC設計
國旗
活下去
本金
大摩
國道客運
林杏兒
BingX
台科大
動物醫院
台南市長
概要
台灣燈會
護理健康大學
工具
許淑華
海軍
Omicron
消費
紫南宮
瑞士
iCloud
部落
Visa
債權債務協商
早餐
綠建築
快閃記憶體
臺北
元太
火鍋
貸款銀行
案例
高通
今日
男朋友
公告
布丁
史明
賴清德
梅根
死亡率
關說
外籍看護
總會
李淳
有限
建造
田徑
王美花
蕭旭岑
武漢
箭在弦上
潘懷宗
中壽
金融機構
方式
愛馬仕
受業
光碟
god
音樂
一年
網頁
工業生產指數
灰狼
核准
澎湖
食品安全
聊天機器人
台灣鐵路管理局
大學台灣
收件
日內瓦
臺南
Intel
新光三越
晶英酒店
陸戰隊
中天
周星馳
做生意
自由
稅務局
文化資產
大聯大
達明機器人
新聞
之間
獅子
藍鳥
中央
鄭天財
更多
南機場夜市
發展策略
退股
共同
信用風險
說明
Vision
Draper
發展研究
避免
更大
徐佳青
市占率
清華大學
農委會
競賽
脫貧
兩岸政策
青年住宅
自閉
評選
港大
今晨
夜景
潘武雄
eTag
博士
管理學院
美國航空
世界貿易
冰沙
大樂透
揭露
自言自語
童子賢
必須
義守
南化水庫
Apple
許銘傑
內門
舉重
臺南藝術大學
摩根
WBC中華隊
起來
債權
園藝
線上申請
食藥署
提高
阿爾卑斯山
地層下陷
網路溫度計
電梯
工作室
銘傳
冰河
承接
changing
中原大學
分手
統聯
通緝
WTO
下午茶
內閣
登場
拿鐵
遭受
升學
樂高
IKEA
蔡正元
台灣證券交易
政事
黃珊珊
環保
種族歧視
買一送一
邱毅
貿易
長城
開啟
注意
守宮
遊樂園
山羌
上市
培訓
能力
FTA
文旦
中秋
紫光集團
大稻埕
哪裡
iPhone
陳其邁
國內投資
休旅車
冷氣
台灣消費者
米其林
水電
怎么解决
大興機場
FTX
中科
崑山科大
通常
生技
贈給
南科
國會
信託商業銀行
商工
鐵路地下化
弘光科技大學
裕隆集團
減少
詩人
邱臣遠
融資利率
中小企業
美國大選
天數
古裝劇
鎮瀾宮
水土
資金周轉
姆巴佩
兩國論
敘利亞
王貞治
台灣黑熊
聯華
青年
皇家馬德里
轉型
洪秀柱
桌遊
加速
手機
移民
旺報
补贴
近期
賞花
一律
步道
薛瑞元
荷蘭
鄭麗文
台東
小段
檢查
股市
基金會
雄三飛彈
學名藥
企業管理
大同技術
梅西
財訊
玉山計畫
翻到
繼續補貼
林錫耀
尋求
難民
連結
桃園機場
環島旅遊
實為
龍捲風
出國旅遊
萬安演習
跟不上
婉拒
腕表
資料
彗星
和春技術學院
行人地獄
LTPS
TikTok
太陽能
反毒
華城
羅明才
免稅額
2022大選
週轉金
瑞穗
萬達
是不是
相親
交通違規
Costco
十二月
高醫
全國人大
經紀
民宿
居家隔離
容器
認售權證
陽信商業銀行
台灣經濟研究
廣告
金
稅款
概念股
高爾夫
消防員
CHANGE
勞動基準法
王義川
個人申請
汽車
育達科技大學
捐款
記憶體
亞洲大學
聚會
Podcast
故事
簡舒培
費德勒
腦中風
平均地權條例
台北大學
第一商業銀行
廢棄物
臺灣銀行
波斯菊
奇美醫院
資本市場
成分
夏威夷
滿意
輝瑞口服藥
辦法
侵權
趙少康
拜票
張泰山
庫存
粉絲
簡訊
創業貸款
流浪狗
健康檢查
地價稅
家電
亞泥
遠百
[www.inz9my.com]
北半球
停電
時候
外委會
雲端服務
行都
駕照
日統客運
新北市長
謝長廷
藥學
流浪犬
國際航班
環保署
波拉
英國
陳若儀
最大
智財局
租借
有效期
養老金
除夕夜
貼身衣物
竟然
丼飯
器官
建設銀行
考量
台電公司
鄭州
交通大學
財政政策
羅秉成
中小企業銀行
李登輝
開發
謝曉星
電子紙
模特兒
母親節
凱基銀
跟著
顧立雄
認證
詹仁雄
全大運
免稅
保暖
你一言
新興
北投
房貸
專利訴訟
無印良品
虱目魚
寶來
竹中
鄭運鵬
雨水
太陽光電
發票
規模
動物收容所
補習
緯創
冠狀病毒肺炎
機器人
張慶忠
無形
到底
聯發科
義大世界
肌腱
抗戰
牛奶
焦點
遠雄
許家印
中華民國
股價指數
林奕華
成功
調整
金馬獎
台北醫學大學
審定委員會
非常
台北國際書展
華碩
Spotify
鼎泰豐
NAND
農民
台灣民間
活塞
許信良
需要
全省
王品
差勁
自由化
關注
牧場
支出
羅馬尼亞
開車技術
P2P
恙蟲
空服員
升級
腳踏車
三倍券
國泰人壽
脈動
電話
能否
純網銀
北京故宮
共同富裕
南投美食
協定
門類
國防授權法
李家豪
加入
酒駕
台灣金融研訓院
健行科技大學
公益
馬雲
軍公教
元宵
連續
衛武營
隔離
美股
證券股份有限公司
收入
開辦費
沐浴
土星
藥局
买卖
要求
月餅
豐田
快閃
定存
中紀委
居住正義
郵政
晚上
醒吾科技大學
修改
大村
六四
鑽石
言論自由
房地產
部會
program
貸款利率
風險
GDP
假訊息
交流
泡菜
派遣人力
科技研發
數位經濟
期限
創業加速器
江宜樺
最高法院
周永鴻
不得
超級富豪
視訊
高中生
反傾銷稅
營業額
石油
保時捷
浮動
公園
恆生指數
低碳
萬里
生育補助
盟主
語言
演習
節電
數位部
工讀生
Idea
老化
制度
陳明通
風電
元大銀行
雅典
水餃
道奇
朱學恒
李彥秀
熱線電話
消保官
北捷
接手
娛樂
鳳凰
東華大學
統一企業
不景氣
虎尾科大
學習
義工
躍進
綠島
iPad
營業
藝文紓困
讀書共和國
失智
2,000
農田水利會
Fed
總計
氣候變遷
NASA
調處
網站
長榮航空
撤掉
利息
滙豐集團
錸德
國安局
溫泉
中秋節
空中巴士
Motorola
高雄科技大學
實力
咖啡
主婦
加利
抵押品
學者
為什麼
搬到
黑名單
矽谷銀行
國土安全
反送中
公司中國信託
大客車
義縣
景氣
人權
抱怨
剩食
合法化
總統府
鏡電視
戴湘儀
成功率
遠東銀
印度教
有限公司
閩南語
演唱會
優惠利率
GIS
可能性
入境
收到
伴手禮
韓元
轉移
套房
頂讓
高齡者
民間貸款
percent
患者
降息
澳洲
企業參訪
矽谷
雲豹
最高
是否
杜蘭特
租金
養殖
股息
分支
健身運動
屏東縣政府
書法家
預計
台中市長
蘇花公路
隕石
中山
名間鄉
拓展
銀發
研究中心
官大元
林濁水
葉林傳
新加坡
遺產
岡山
失望
Mac Mini
普拿疼
黃仁勳
黃金價格
熱氣球
工商
反中
皇馬
iOS
螞蟻
空氣清淨機
網際網路
有沒有
言論自由日
國民黨
分散
警犬
企業數位化
中央氣象
負責
流失
認購
周春米
之外
蘇納克
區段徵收
荷蘭銀行
共和黨
大葉大學
太魯閣族
兒子
缺水
商情
募款
鹹酥雞
輻射
論文抄襲
起勁
烏魯木齊
結果
資格
友人
蔡易餘
難以忍受
台灣製造業
興業銀行
元培醫事科技大學
許玟琪
部桃
高鐵
考古
嫌疑
青年創業貸款
台北富邦商業銀行
布林肯
販毒
GOD
感冒
范雲
半年
哥倫比亞
黃暐傑
性侵
林岳平
新能源車
埃及
智慧手機
精神
租金減免
埔里
台南應用科大
代替
取消
台灣民眾黨
煙火秀
法國巴黎
被動元件
原告
中信銀
地方
YouBike
吳音寧
嘉義市選舉
樂天桃猿
槍擊
亞太經濟合作
姓名
OECD
獨居老人
加密貨幣
不能
每股純益
能源局
房仲
傳統文化
南紡
電子菸
移轉
娃娃機
吉林
台語
西湖
徵兵制
生日
台北港
PCB
Google Cloud
2891中信金
蘭陽溪
火鳳凰
vision
溺水
張喜凱
李大維
吳政忠
運算
PCR
麻將
防疫措施
宣導
護照
肥胖
成交量
壁畫
可行性
外貿協會
法會
NVIDIA
緬甸
U18世青賽
航空母艦
主管
東港
熱火
央行
東南亞
明天
通膨
白宮
黃金周
利率優惠
紅酒
白紙運動
物理治療師
法蘭克福
國土測繪中心
貪污
流程
觀光學院
嘉義旅遊
比爾蓋茲
人壽保險股份有限公司
台北合眾
軍訓
立院
余天
智慧家電
自首
優惠
國內生產總值
貪汙
拉麵
知道
鄭文燦
吳德榮
交易所
焦慮
搶銀行
屏東
民間信仰
義美
德州
出口值
電費減免
7-Eleven
沈智慧
梅花旗
雄獅
環境保護署
摩斯漢堡
調查
化妝品
規費
堅決
寵物
女性
彰化商業銀行
Google
產
梧棲
健身房
魯拉
電話號碼
代理教師
跨太平洋夥伴協定
iPod
購物中心
大概
電費
賈伯斯
紀念館
Taiwan
馬祖
馬可仕
PGO
搶劫
桌球
秦剛
布袋戲
賴坤成
富邦勇士
利率浮動
第三方支付
獵雷艦
加班
福島
據點
揚州
販賣
延長
年改
需求
六大
鬥毆
大學生
陳玉珍
ChatGPT
非正常
東京
發展
登山
數學科
竊盜
環球
省水
鮭魚
市佔率
貿易戰
石門水庫
上船
亞運
數位化
劉政鴻
戴瑋姍
成長
CP值
春雨
運籌
起司
廚餘
產業創新
關係
將來銀行
貨物稅
中市
微電影
驗證碼
衰退
南市
金流
歐盟
使用
特拉斯
要件
都更
波蘭
建商
攻占
領導者
社會
國內外
北一女
加速器
彰化師範大學
越野
三大法人
大法官
貸款
和碩
紐約時報
網紅
養豬場
隱私權
保險業
品牌
身份
勞資
陳琬惠
事務
席丹
年夜飯
國歌
中小企業協會
開始
文創產業
零利率
巴布亞紐幾內亞
永豐銀行
五金
爆料公社
太平雲梯
年薪
都有
酒精
食品藥物管理署
日盛銀行
聯合大學
看護
關進
礁溪
天然氣
PLG
興富發
彭啟明
核電
人民銀行
中信金
李家超
獨居
太陽能電池
SIIR
感化
口湖鄉
技術
網絡
醫療器材
造成
友達
焚化爐
庫藏股
師大附中
怎麼解決
財務自由
PMI
代表
營業稅
信義房屋
戰爭
佈局
金融監督管理委員會
普京
普亭
中共二十大
老闆
導遊
競爭
死刑
交通
國家風景區
創始
眉毛
羅致政
頭條
奇景
颱風
南庄
造船
發展協會
紅綠燈
餅乾
紀錄
不良
玉山金控
世新大學
掰掰
靜脈曲張
集合
你好
遺址
媳婦
住宅
央視
鎖國
東北風
社群媒體
路邊攤
乳癌
天文館
資訊
媽祖
POS
抗旱
蔣經國
子公司
粽子
播放
接收
分析
松下
拼多多
街友
沈重
節稅
梵蒂岡
掩蓋
台水
陳麗娜
訓練
士官長
幼教
失業
非核家園
羅友志
住宿
曾經
蘇姿丰
缺乏
信託
永守
買氣
還款方式
外貿
禁忌
發給
台江
長崎
福島核災
網線
面膜
鄧振中
台灣電影
王育敏
沉重
秦慧珠
行商
雙城論壇
管工
國民
衣物
助理
極光
外資
輔導青年創業
藝術展覽
連戰
發
安全帽
Display
派對
劇場
李伯璋
台汽
邦銀
湯圓
foodpanda
亞太電信
元大人壽
新竹棒球場
中研院
HBL
PS5
高雄港
房價
台北通
董事
除息
溢價
國立故宮博物院
獸醫師
選項
足跡
TPASS
義大利
早餐店
簽證
高階
中信證券
海峽論壇
資誠
甲狀腺
抵押
iRent
紅包
预约
otop
白紙革命
黃健庭
交友軟體
國立台灣圖書館
佛洛伊德
聯邦銀
施崇棠
成功案例
王惠美
佔有率
年終獎金
印尼
退休金
中央銀行
曲棍球
原子能
融資
宣布
電子商務
黃光芹
暨南大學
馬來西亞
PTT
沙灘
零件
IDEA
日本台灣交流協會
電動自行車
自學
烏克蘭
雷伊
小三通
濕氣
白俄羅斯
防曬
賄款
嬰兒潮
鄒族
產業園區
詹姆斯
古蹟
國際商業銀行
眷村
陳建仁
中山大學
碼頭
高雄
台泥
更生人
社區發展
盡量
業務
三菱
立法委員
關公
不銹鋼
牛市
國
閱讀數學
分行
渣打證券
哈姆雷特
農業委員會
林威助
北宜公路
三商美邦人壽
高盛
麥卡錫
航班
拜年
消費貸款
婚外情
人事
洗腎
華紙
櫻花
設定
越南
城隍廟
買賣
國貿
年月
真
物價上漲
桃園
金融業
漁人碼頭
大陸商務部
張景森
臺灣海洋大學
專利
原因
妹妹
轉給
哈利伯頓
動作
吉爾吉斯
情形
王婉諭
科目
Switch
2002中鋼
人身
江怡臻
台灣大學
詢問
冰河期
中心
菁英
光影
營業稅減免
隱形眼鏡
福建
全家
陳永和
海關
創業競賽
南德
高地
迪化街
國泰
安倍晉三
青
綠能
雇用
內蒙古
至高
施振榮
歷史
法規
建國
牛肉麵
芒果
台灣文學
魚蝦
措施
週轉率
議員
抄襲
女性分享
振興資金
西門町
付款
中央大學
救助
日盛金
呼籲
國民法官
梅蘭妮亞
槍枝
護理
述要
國安基金
力雄
丹麥
槍枝管制
高苑科技大學
吊橋
羅一鈞
台海
正隆
鴻海
中華大學
MacBook Air
抹茶
育成
利息補貼
開箱
酒店
小野
公安
宜蘭縣選舉
保母
長新冠
慈濟
台南應用科技大學
時間
消費者
熱錢
陳時中
上市公司
2,100
Mazars
兔年
放生
豪雨
咖啡館
財政部長
台北世貿
斜槓
市長
四千
森林鐵路
漁業署
臺灣企銀
國立臺南藝術大學
武器
陳秀熙
天母
食品
育才
司法
台灣景點
Zoom
職業
財運
京都
華爾街日報
創業青年
塔羅牌
中職
全球化
交通部長
公寓
麥當勞
解散
趙天麟
可不
雨量
嘉泥
一卡通
都市更新
救國團
長榮集團
辦公室
HBL男子組
東元
刻苦
教育部
展覽
兆豐銀行
夜市美食
中華經濟研究院
KKBOX
新竹美食
共存
昨天
選委會
完成
台上
長庚
大屯山
網美
萬能工商
揚聲器
欠缺
柳町達
帶來
工研院
魚行
打造
葉君璋
112會考
玻璃
正在
債券
果汁
巴比妥
張亞中
音樂系
基隆嶼
技術學院
勞工退休金
榮民
懷孕
傷害罪
衛生
巨大
加盟
台中
Tesla
海軍司令部
經營權
極端氣候
蔡壁如
聯誼
處理
觀光景點
外交
人事行政
平衡
藝文發展
中華郵政
方舟文化
花蓮
俞大㵢
研究所
新生兒
特定
軟體銀行鷹
何志偉
披薩
消費者物價指數
東京晴空塔
電信
縱火
威爾
李詩欽
藍寶堅尼
課程發展
選秀
中小型企業
第一
God
港股
擴廠
稅金
收回
新竹市選舉
立委
哪個
訂房
電通
至少
世界大賽
英特爾
Novavax疫苗
超商
威剛
陳柏良
保費
工業局
陽信銀行
消基會
Pan
漁村
公共政策
岸田文雄
月底
烏干達
廟宇
羅東
Email
伺服器
產業
南一中
奶茶
交通部
授權
李承翰
電動車
大數據
日月文化
海地
企業貸款
金門大橋
滙豐
烏來
華府
渣打
太陽能發電
HomePod
車主
趙露思
鳳梨釋迦
茶葉蛋
蘇州
佯稱
大江生醫
身分
火箭
機車騎士
美景
申訴管道
信託商銀
賀陳旦
勞保
王永慶
考題
夏立言
台南藝術大學
藝術大學藝術
產業分工
大清水隧道
鯊魚
華廣
資費
玉山銀
促進
九二共識
行動裝置
繡球花
北富銀
信託銀行
工程
債務
監獄
集集
龔明鑫
熊大
證券公司
遠東集團
下文
肉桂
抽菸
臺南大學
數位
莫德納
可以
流水席
綠色
薯條
稅制
MacBook
新南向政策
獨木舟
志工
古道
心肌梗塞
Epson
林智勝
鍾佳濱
慈濟大學
連接器
密封
勞保基金
數位身分證
人行道
聖事
水庫
扶貧
信貸
和潤企業
扣件
過敏反應
元大證券
和尚
願景
三明治
台師大
觀光業
市集
芬蘭
目前
高雄銀行
培瑞茲
關卡
銀髮族
浮動利率
成大
冰品
台企
基金
製造業
蔚來汽車
合作金庫
嘉義高商
鄭南榕
全方位
安排
債務危機
信用評等
金部
孵化器
大
泰山企業
布雷系統
國軍
高餐
泰雅族
申請方式
轉彎
啟動補助
戰略
偷竊
遠傳電信
認列
列表
印度
三星
志願役
中正紀念堂
不斷
伊朗
演藝
帛琉
電價
波士頓
遠雄購物中心
石破茂
台北城市科技大學
快篩
違建
理財
日亞化
花旗
自己
火燒車
基隆市選舉
稅制改革
監護權
金價
Gogoro
穆斯林
游盈隆
曾文水庫
許智傑
改革
彰化銀行
阿米塔吉
示警
Fintech
明志科大
華泰商業銀行
黨產會
吳子嘉
會考
科夫
王室
洋蔥
童子瑋
懶人包
發聲
科大
稅務
關子嶺
東海大學
巴士
省道
傳染病
網路安全
醫療補助
牛肉
車輛
黃明昭
海洋音樂祭
方式還款
神木
江少慶
巴黎奧運
楊瓊瓔
有沒有辦法
土地銀行
統計局
中國信託
臭豆腐
喜宴
理賠
longchamp
西門子
綠茶
軍人
運動傷害
外送
老年人口
無線充電
議題操作
東北季風
觀傳局
方案
秘境
受刑人
柏林
專案貸款
撐不下去
緊縮
分公司
雲科大
王浩宇
裴洛西
機場
南山人壽
人力銀行
家庭
蟑螂
江湖郎中
世界大學運動會
合法
薛瑞福
南亞科
暖暖包
全家便利商店
不是
賞櫻
素食者
青蛙
佛光山
詐騙
森林遊樂區
儲蓄
長庚科大
DAWHO
聽說
徐國勇
環境
小吃
南臺科大
熱門
立法院
東區
高思博
醫療
卡斯楚
意外
台灣高鐵
Mail
籌資
歐國盃
投票率
財政部
托兒
軍演
龍應台
授權專利
外遇
故障
斯里蘭卡
博物館
開學日
玉米
稅
玉山
原始
全年
哈瓦那
姐姐
高階手機
東協
數位發展部
香港迪士尼
柬埔寨
告別式
偽造文書
南投
同性婚姻
支票
三月
大立光
城堡
星展
瑞芳
解析
平鎮高中
公布
app
時報
國標舞
明年
寒害
梵谷
緯穎
管理辦公室
投訴
春節
國保
擋風玻璃
聯貸
黃天牧
溫哥華
走私
營運
侵占
網路銀行
文件
Bank
探親
環球晶
財務
定期定額
殺人
狒狒
髮型
工安
全教總
楊紫瓊
紅雀
IBM
新竹市
北海道
高教深耕計畫
林鄭月娥
SK海力士
牙膏
BA.5
酵素
競爭力
Netflix
內線交易
陳歐珀
貸款額度
貓咪
老婆
差別待遇
行動支付
智冠
獲得
前沿技術
祖克柏
辣椒水
核定
舒芙蕾
洪申翰
黃子佼
樟宜機場
大仁
運動會
海外
代購
保人
餐具
設計軟體
廣島
ICS
社會企業
KKday
台灣
市場
台灣電子產業
比亞迪
淡水
台幣匯率
中州科大
中央研究院
警示
企業
金牌
歷史建築
Pro
效益
朴子
壽司
倫敦
北京大學
巴基斯坦
炒飯
交通部觀光局
不動產
陳抗
配戴
尼泊爾
ICs
收養
禁菸
公鹿
富士康
國家安全局
李安妮
晶片
海大
民眾黨
柯建銘
邊境管制
國道
夥伴
消防署
愛奇藝
國健署
台北富邦
醫事科技大學
互相
iPad Pro
駕駛
國立臺灣體育運動大學
成立
陳仕朋
心理諮商
Dcard
資源
猥褻
統計
國語日報
劉揚偉
正妹
匈牙利
二極體
圓山飯店
規劃
岩手
蔡彩貞
台企銀
供電
議題
德意志銀行
旱溪媽祖
謝衣鳳
戰國
車道
3,400
聖火
慈祐宮
匯豐台灣
限期
客戶
公廁
防疫保單
智利
機票
上架
日本央行
到期
電子發票
蘇花改
曾銘宗
路權
股份公司遠東
存款
設置
合一
年金改革
競技場
參院
方濟各
momo
健康
1,800
Apple Watch Ultra
維持
索取
平權
外配
股東
才去
Word
受理
鐵路高架化
女星
帳務
保險業績
淡海輕軌
產品設計
激動
春季聯賽
何必
高雄醫學大學
小商
章程
萊爾富
黑田東彥
信仰
花式滑冰
人力
有意
遊艇
怎麼處理
李眉蓁
道瓊指數
達能
房間
所長
德明財經科技大學
再生能源
信件
雄女
吳敦義
關閉
容忍
胡志明市
呂國華
凍卵
新竹高中
霜淇淋
落石
超頻
北護
難關
國立屏東
木村拓哉
經濟研究所
高雄銀
實名制
烘焙
國台辦
大型音樂
台新金
小巨蛋
失蹤
蘇聯
藝文
美元匯率
大同公司
邱鎮軍
張子敬
多元
統一發票
搜尋
完整
低能
鈴木
display
李家同
中華
反聖嬰
油價
司法院
電競筆電
太低
申訴
國際級
郭正亮
革新
透視
天使投資
WWDC
太空人
地下室
免治馬桶
斷橋
創業投資
林家興
科技產業
李貴敏
天使
中華醫事科大
財務報表
羽生結弦
西甲
十二年國教
瑞穗銀行
台新銀
拍賣會
開心
立委選舉
名下
圖書館
東哥
制服
Mazar
SBIR
臺北科技大學
台灣加入
農產
學校
IMF
台日關係
郭國文
比賽
高雄市選舉
貝佐斯
陳菊
電信業
替代役男
羅智強
國泰世華
老宅
禽流感
吳思華
創新創業
國內
社區感染
捷運
履歷
財政預算
高雄大學
莫德納疫苗
勞動
邱莉莉
法律系
驗證
海洋大學
政大
六龜
台東大學
徐旭東
合庫金
光華
商行
乾隆皇帝
以下
納達爾
陽明大學
視力
入股
趙麗穎
白沙屯媽祖
Porsche
英格倫
糟糕
薪水
高端疫苗
企業融資
利率政策
石門
封城
話題
黨工
廖老大
生活
Google Maps
流感
南方澳
同事
申請
清楚
這裡
邱國正
聚焦
建築
全職
雙城
聖約翰科大
支付寶
IPO
一言
華航
公眾號
全聯
北港朝天宮
fintech
日日春
大運
黃承國
中信兄弟
小年夜
中油公司
信保
提早
出軌
相同
挪威
景氣燈號
最高院
身心障礙
女性網絡
澳門
賄選
國民年金保險
徵收
網路直播
念經
紓困
計程車
考察
產業動態
系統操作
幫派
環球科技大學
瑞士信貸
大選
保險金
微星
LaLaport
迪士尼
潮州
同仁
劉鶴
行政院
元宇宙
徐巧芯
人口老化
豪宅
國際新聞
薪資
村上宗隆
面板
省錢
華南銀行
生產合作社
ABS
江振誠
極地
人事行政局
存貨
有所
融券
合作
公平會
鯨魚
高屏
星座
老屋
外銷
電源管理
書摘
資遣
馬文君
周玉蔻
成功嶺
球速
立委補選
租稅協定
穿山甲
求職
徵文
純真
尼克
法人
搜索
哈利王子
三信商業銀行
看到
全民共享經濟成果特別條例
ADR
註冊商標
白內障
李慶華
秘魯
牛排
人名
台銀
蔡明興
獎學金
足球
信用保證
金融公司
華燈初上
退費
鐵礦砂
台灣首府大學
兵役
感恩節
郵件
財產
威力彩
蛤蜊
捷克
核廢料
林全
浴室
遠距教學
年貨
基隆捷運
Alphabet
林姿妙
經濟合作
郵輪
更改
巴菲特
翁章梁
所需
ISUZU
聖約翰科技大學
交易服務
外匯
保安宮
台中港
超馬
防治
投資
摩鐵
指引
骨折
曾仁和
張育成
財長
動產
林小姐
商業
少子化
經濟部商業司
楊振寧
中央氣象局
葡萄牙
幻象戰機
銀行貸款
國立高雄餐旅大學
台鋼
搬家
黃捷
母公司
元旦
中國郵政
高峰
高中聯考
黃敏惠
世界遺產
伊拉克
國票金控
海鮮
金錢豹
整理
電視面板
東陽
保全
玩家
紀錄片
霞海城隍廟
諮詢
警察
炸雞
社交
林鶴明
代辦
台北
創意
更新
台灣證券交易所
金融卡
中華快遞
癌細胞
冬奧
前日
滙豐台灣
這樣
德明
動畫
漁民
俄烏戰爭
蘭嶼
身障
國務卿
華邦電
科系
壽險
以來
大熊
sme
慈濟科技
中選會
大同技術學院
秀泰影城
中藥
電信詐騙
展演
是否可以
淹水
思科
創業資源
邱議瑩
陳耀祥
珍古德
蔡適應
經濟政策
台南市選舉
change
元大金控
移民署
統一超商
台南
人員
分享
台獨
元智大學
法國興業
中州科技大學
賣淫
汐東線
刮刮樂
銀行業務
富翁
航空
咖啡廳
雞排妹
庫德族
社企
中央社
工廠
台塑化
小學生
MAIL
8,000
李明璇
人民幣
商標
iPhone 14 Pro
便當
現金
資遣費
瑞昱
元智
新聞自由
國際技能競賽
泡湯
安親班
哭哭
世大運
ROG
巫師
規畫
符合
蘇清泉
農地
佛光大學
天燈
熊市
高鐵延伸宜蘭
國安會
電商
星展銀行
中時
公路總局
文創
財富分配
取回
教堂
沈呂巡
基隆
國光客運
牛仔褲
文物
尾牙
指考
張其祿
商機
雲端運算
日期
義大遊樂世界
處理帳務
沈慧虹
金門
改寫
林佳龍
莊翠雲
器材
美式料理
唐氏症
習近平
助學
T-shirt
已經
可可
國王
版本
路上
相關
日本
墮胎
院校
上海迪士尼
北港
竹科
困難
荷銀
奧地利
資金
常用
政策
農業創新
APP
軍區
側翼
鄭朝方
藝術
聯邦
沒有辦法
部分
幼兒園
山豬
小額
個資
技術支持
財務規劃
開戶
宜蘭
OPEC
世錦賽
飛安
全中運
可否
爐渣
陳星
登山步道
陳宗彥
中的中
痛風
中國工商
協會
櫃買中心
生活習慣
基因
號碼
誠品
方法
加德滿都
自拍
接洽
RSV
陶藝
空襲
高市
公然侮辱
重陽敬老禮金
飲食
陳紫渝
奢侈品
租屋
三分之一
曾文
亞太
一帶一路
尚在
求才
中山女高
復必泰
環島
進行
Grab
JDI
台鐵
台灣金融
銘傳大學
今年經濟
李寧
合照
操作指引
廣播電視總局
永豐金控
臉書
隅田知一郎
文化
開南大學
園區
嘉南
營建業
奧斯卡
潛艦
價值
美國職棒
林燕祝
用事
決定
中南部
國家通訊傳播委員會
蔡明忠
無人機
年
骨質疏鬆
本性
點數平台
事宜
曾文生
ATM
rezio
基地
環台賽
創業環境
北京
貸款期限
虐童
股權
失業補助
吸毒
自行車
布局
店
食安
國際開發
嚮往
滿足
雙層巴士
中期
平溪
溜馬
統一
沈富雄
諾貝爾
高麗菜
健行科大
地方政府
京城
鬆餅
爆廢公社
廚房
東石
國泰航空
開辦費用
逾期
顏若芳
創意料理
再度
Instagram
老店
斗六
最新
強震
食品工業發展研究所
國家安全
英業達
專科
澄清湖
idea
蘇嘉全
蕭赫麟
地下匯兌
創投
張靜
替代道路
馬拉松
玉山國家公園
供應鏈
年貨大街
溪頭
定期
麥格理
本息
報酬率
民事訴訟
農場
統測
受難者
請進
PM2.5
經濟部能源局
高度
情書
華山文創園區
集合啦！動物森友會
擴散
不合理
影視產業
春聯
解決
職災
賴品妤
中東
hyundai品牌
所得稅
誘發
液化石油氣
外商
醫學院
國立台灣
精華
證交稅
退休
上海浦東機場
公民團體
信用狀
韓粉
自駕車
故宮
中華民國台灣
觀光列車
養雞
漏水
交大
顏清標
匯豐
創新研發
陳光復
勇士
在哪裡
查詢
知名度
可用
巴拉圭
新車
銀行業
武嶺
高志鵬
連結聯貸
林口
告訴
WORD
陽明
性交易
租金補貼
克服
資源回收
購買
年輕
澎湖縣
卜蜂
YouTube
老鼠
南榮科技大學
林智堅
生態保育
信用貸款
台灣獼猴
Next
正常
用作
楊謹華
醫學
高血壓
王道銀行
全球經濟
湯普森
智慧財產權
海巡
珍奶
駭客
土銀
工程師
史哲
配有
大王
貓奴
巴黎
晶圓
廠房
假消息
Google Play
面試
顯示器
診所
淨值
天安門
台商
延後
Hashtag
戴笠
國家發展委員會
蔡沐霖
好讀周報
雲門舞集
捷運環狀線
屏科大
八村壘
補貼
台積電
后里
公司法
標普
爆炸
國產
淨灘
集保結算所
台啤
燈塔
國立暨南國際大學
鹿港
漏油
楊蕙如
榮獲
大學護理
老農津貼
台開
黃金獵犬
觀光
智慧財產
世界貿易中心
Facebook
家扶中心
味全龍
虎尾
客服
財報
機師
大潤發
國務院
民視
小姑
離婚
小姐
大谷翔平
假期
很久
關稅
創業基金
義診
高志綱
逢甲大學
核能
留言
水利局
寶島
大同
綠色產業
COVID
非常不爽
糾紛
包爾
成功大學
冰淇淋
藝術館
視障
系統
無法
太魯閣
費用
SBL
轉移技術
光大證券
信用卡
投信
張廖萬堅
Telegram
用途
員工分紅
彩券
BAC
投保
素養
台中捷運
葡萄酒
遠百信義A13
台北101
蔡炳坤
摩根大通
林飛帆
脂肪
早午餐
實價登錄
法律諮詢
黃子哲
女權
國際貿易
城市
