批發業3月營收連五黑 零售、餐飲創同月新高
2023-04-24
https://udn.com/news/story/7238/7119781?from=udn-referralnews_ch2artbottom
經濟部統計處今（24）日公布3月批發、零售及餐飲營收統計。批發業3月營收為1兆164億元，年減13.3%，陷入「連五黑」；零售業營收為3,685億元，創下同月新高，年增7.1%，達到「連19紅」；餐飲業營收為766億元，創同月新高，年增9.8%，拿下連續11個月正成長。 而今日同時公布今年第1季營收統計，批發業第1季營收為2兆7,926億元，年減11.6%；零售業營收為1兆1,061億元，創下同季新高，年增5.3%；餐飲業營收為2,548億元，創下同季新高，年增17.2%。 統計處預估，4月批發業營收年減12.5%至年減9.5%，恐陷入「連六黑」；零售業營收年增6.2%至年增9.2%；餐飲業營收年增24.6%至年增27.6%。 營收 餐飲業