市場關注美國債務上限僵局 美股開低
2023-05-09
https://udn.com/news/story/6811/7154007
美股主要指數今天開盤走低，蘋果供應商思佳訊（Skyworks）等企業財測疲弱，導致市場情緒低迷，投資人則關注美國舉債上限僵局。 道瓊工業指數下跌28.84點或0.09%，開在33589.85點。 標普500指數下挫13.87點或0.34%，開在4124.25點。 那斯達克綜合指數挫跌61.14點或0.50%，開在12195.78點。 標普 美股